{"componentChunkName":"component---src-templates-blog-tsx","path":"/es/blog/2","result":{"data":{"allMarkdownRemark":{"totalCount":5,"edges":[{"node":{"id":"77e4a13f-ae6b-5f59-b564-cdda20076978","timeToRead":1,"excerpt":"OTRO","frontmatter":{"id":"2","lang":"es","title":"otro original","date":"24.02.2018","category":"React"}}}]}},"pageContext":{"limit":4,"skip":4,"totalPages":2,"currentPage":2,"lang":"es"}}}